…
signal_stability
```

    # A tibble: 1,477 × 7
       Station_MAC       Probed_ESSIDs mean_power sd_power     n first_seen         
       <chr>             <chr>              <dbl>    <dbl> <int> <dttm>             
     1 00:90:4C:E6:54:54 Redmi                -65       NA     1 2023-07-28 09:16:59
     2 00:95:69:E7:7C:ED nvripcsuite          -55       NA     1 2023-07-28 09:13:11
     3 00:95:69:E7:7D:21 nvripcsuite          -33       NA     1 2023-07-28 09:13:15
     4 00:95:69:E7:7F:35 nvripcsuite          -69       NA     1 2023-07-28 09:13:11
     5 00:F4:8D:F7:C5:19 Redmi 12             -73       NA     1 2023-07-28 10:45:04
     6 02:00:00:00:00:00 xt3 w64dtgv5…        -67       NA     1 2023-07-28 09:54:40
     7 02:06:2B:A5:0C:31 Avenue611            -65       NA     1 2023-07-28 09:55:12
     8 02:1D:0F:A4:94:74 iPhone (Дима…        -61       NA     1 2023-07-28 09:57:08
     9 02:32:DC:56:5C:82 Timo Resort          -84       NA     1 2023-07-28 10:58:23
    10 02:35:E9:C2:44:5F iPhone (Макс…        -88       NA     1 2023-07-28 10:00:55
    # ℹ 1,467 more rows
    # ℹ 1 more variable: last_seen <dttm>
…
